﻿{
    "female": [
        {
            "3": "11.74",
            "4": "10.22",
            "5": "9.53",
            "6": "9.18",
            "7": "9.00",
            "8": "8.92",
            "9": "8.90",
            "10": "8.92",
            "age": "18"
        },
        {
            "3": "11.90",
            "4": "10.34",
            "5": "9.64",
            "6": "9.29",
            "7": "9.11",
            "8": "9.02",
            "9": "9.01",
            "10": "9.04",
            "age": "19"
        },
        {
            "3": "12.03",
            "4": "10.45",
            "5": "9.74",
            "6": "9.39",
            "7": "9.20",
            "8": "9.13",
            "9": "9.13",
            "10": "9.17",
            "age": "20"
        },
        {
            "3": "12.13",
            "4": "10.54",
            "5": "9.84",
            "6": "9.48",
            "7": "9.31",
            "8": "9.25",
            "9": "9.25",
            "10": "9.31",
            "age": "21"
        },
        {
            "3": "12.23",
            "4": "10.64",
            "5": "9.93",
            "6": "9.59",
            "7": "9.44",
            "8": "9.38",
            "9": "9.40",
            "10": "9.46",
            "age": "22"
        },
        {
            "3": "12.35",
            "4": "10.75",
            "5": "10.06",
            "6": "9.73",
            "7": "9.59",
            "8": "9.54",
            "9": "9.56",
            "10": "9.62",
            "age": "23"
        },
        {
            "3": "12.49",
            "4": "10.90",
            "5": "10.23",
            "6": "9.91",
            "7": "9.77",
            "8": "9.72",
            "9": "9.74",
            "10": "9.80",
            "age": "24"
        },
        {
            "3": "12.67",
            "4": "11.09",
            "5": "10.42",
            "6": "10.11",
            "7": "9.96",
            "8": "9.92",
            "9": "9.94",
            "10": "9.99",
            "age": "25"
        },
        {
            "3": "12.93",
            "4": "11.33",
            "5": "10.65",
            "6": "10.33",
            "7": "10.18",
            "8": "10.14",
            "9": "10.15",
            "10": "10.19",
            "age": "26"
        },
        {
            "3": "13.23",
            "4": "11.60",
            "5": "10.91",
            "6": "10.57",
            "7": "10.42",
            "8": "10.36",
            "9": "10.35",
            "10": "10.39",
            "age": "27"
        },
        {
            "3": "13.56",
            "4": "11.89",
            "5": "11.17",
            "6": "10.82",
            "7": "10.65",
            "8": "10.57",
            "9": "10.56",
            "10": "10.61",
            "age": "28"
        },
        {
            "3": "13.88",
            "4": "12.17",
            "5": "11.42",
            "6": "11.05",
            "7": "10.86",
            "8": "10.78",
            "9": "10.78",
            "10": "10.84",
            "age": "29"
        },
        {
            "3": "14.19",
            "4": "12.43",
            "5": "11.66",
            "6": "11.26",
            "7": "11.06",
            "8": "10.99",
            "9": "11.01",
            "10": "11.12",
            "age": "30"
        },
        {
            "3": "14.48",
            "4": "12.67",
            "5": "11.86",
            "6": "11.46",
            "7": "11.27",
            "8": "11.23",
            "9": "11.29",
            "10": "11.43",
            "age": "31"
        },
        {
            "3": "14.74",
            "4": "12.88",
            "5": "12.06",
            "6": "11.67",
            "7": "11.52",
            "8": "11.52",
            "9": "11.62",
            "10": "11.78",
            "age": "32"
        },
        {
            "3": "14.95",
            "4": "13.07",
            "5": "12.27",
            "6": "11.92",
            "7": "11.82",
            "8": "11.87",
            "9": "12.00",
            "10": "12.18",
            "age": "33"
        },
        {
            "3": "15.15",
            "4": "13.30",
            "5": "12.55",
            "6": "12.26",
            "7": "12.20",
            "8": "12.28",
            "9": "12.42",
            "10": "12.61",
            "age": "34"
        },
        {
            "3": "15.43",
            "4": "13.62",
            "5": "12.94",
            "6": "12.69",
            "7": "12.67",
            "8": "12.76",
            "9": "12.90",
            "10": "13.09",
            "age": "35"
        },
        {
            "3": "15.88",
            "4": "14.12",
            "5": "13.47",
            "6": "13.25",
            "7": "13.22",
            "8": "13.30",
            "9": "13.44",
            "10": "13.62",
            "age": "36"
        },
        {
            "3": "16.56",
            "4": "14.80",
            "5": "14.14",
            "6": "13.89",
            "7": "13.85",
            "8": "13.90",
            "9": "14.03",
            "10": "14.18",
            "age": "37"
        },
        {
            "3": "17.43",
            "4": "15.59",
            "5": "14.87",
            "6": "14.59",
            "7": "14.50",
            "8": "14.53",
            "9": "14.63",
            "10": "14.77",
            "age": "38"
        },
        {
            "3": "18.42",
            "4": "16.44",
            "5": "15.64",
            "6": "15.29",
            "7": "15.17",
            "8": "15.17",
            "9": "15.24",
            "10": "15.37",
            "age": "39"
        },
        {
            "3": "19.39",
            "4": "17.25",
            "5": "16.37",
            "6": "15.96",
            "7": "15.80",
            "8": "15.77",
            "9": "15.83",
            "10": "15.96",
            "age": "40"
        },
        {
            "3": "20.27",
            "4": "17.99",
            "5": "17.03",
            "6": "16.58",
            "7": "16.39",
            "8": "16.34",
            "9": "16.40",
            "10": "16.53",
            "age": "41"
        },
        {
            "3": "21.05",
            "4": "18.65",
            "5": "17.63",
            "6": "17.14",
            "7": "16.93",
            "8": "16.89",
            "9": "16.95",
            "10": "17.11",
            "age": "42"
        },
        {
            "3": "21.76",
            "4": "19.26",
            "5": "18.18",
            "6": "17.68",
            "7": "17.47",
            "8": "17.44",
            "9": "17.53",
            "10": "17.73",
            "age": "43"
        },
        {
            "3": "22.41",
            "4": "19.83",
            "5": "18.73",
            "6": "18.22",
            "7": "18.03",
            "8": "18.02",
            "9": "18.17",
            "10": "18.46",
            "age": "44"
        },
        {
            "3": "23.04",
            "4": "20.40",
            "5": "19.29",
            "6": "18.80",
            "7": "18.63",
            "8": "18.69",
            "9": "18.94",
            "10": "19.35",
            "age": "45"
        },
        {
            "3": "23.69",
            "4": "21.01",
            "5": "19.90",
            "6": "19.44",
            "7": "19.35",
            "8": "19.52",
            "9": "19.90",
            "10": "20.46",
            "age": "46"
        },
        {
            "3": "24.42",
            "4": "21.70",
            "5": "20.61",
            "6": "20.23",
            "7": "20.26",
            "8": "20.57",
            "9": "21.12",
            "10": "21.82",
            "age": "47"
        },
        {
            "3": "25.25",
            "4": "22.52",
            "5": "21.51",
            "6": "21.25",
            "7": "21.44",
            "8": "21.93",
            "9": "22.62",
            "10": "23.45",
            "age": "48"
        },
        {
            "3": "26.26",
            "4": "23.57",
            "5": "22.68",
            "6": "22.60",
            "7": "22.98",
            "8": "23.62",
            "9": "24.44",
            "10": "25.39",
            "age": "49"
        },
        {
            "3": "27.58",
            "4": "24.97",
            "5": "24.26",
            "6": "24.36",
            "7": "24.89",
            "8": "25.66",
            "9": "26.60",
            "10": "27.69",
            "age": "50"
        },
        {
            "3": "29.41",
            "4": "26.90",
            "5": "26.35",
            "6": "26.58",
            "7": "27.21",
            "8": "28.09",
            "9": "29.17",
            "10": "30.42",
            "age": "51"
        },
        {
            "3": "31.95",
            "4": "29.47",
            "5": "28.97",
            "6": "29.26",
            "7": "29.98",
            "8": "30.98",
            "9": "32.21",
            "10": "33.58",
            "age": "52"
        },
        {
            "3": "35.27",
            "4": "32.62",
            "5": "32.08",
            "6": "32.40",
            "7": "33.21",
            "8": "34.35",
            "9": "35.69",
            "10": "37.16",
            "age": "53"
        },
        {
            "3": "39.25",
            "4": "36.27",
            "5": "35.64",
            "6": "36.01",
            "7": "36.94",
            "8": "38.17",
            "9": "39.60",
            "10": "41.15",
            "age": "54"
        },
        {
            "3": "43.68",
            "4": "40.33",
            "5": "39.65",
            "6": "40.09",
            "7": "41.08",
            "8": "42.38",
            "9": "43.88",
            "10": "45.52",
            "age": "55"
        },
        {
            "3": "48.45",
            "4": "44.80",
            "5": "44.10",
            "6": "44.56",
            "7": "45.59",
            "8": "46.95",
            "9": "48.53",
            "10": "0.00",
            "age": "56"
        },
        {
            "3": "53.76",
            "4": "49.82",
            "5": "49.02",
            "6": "49.45",
            "7": "50.50",
            "8": "51.92",
            "9": "0.00",
            "10": "0.00",
            "age": "57"
        },
        {
            "3": "59.83",
            "4": "55.42",
            "5": "54.43",
            "6": "54.80",
            "7": "55.88",
            "8": "0.00",
            "9": "0.00",
            "10": "0.00",
            "age": "58"
        },
        {
            "3": "66.63",
            "4": "61.58",
            "5": "60.35",
            "6": "60.66",
            "7": "0.00",
            "8": "0.00",
            "9": "0.00",
            "10": "0.00",
            "age": "59"
        },
        {
            "3": "73.95",
            "4": "68.20",
            "5": "66.74",
            "6": "0.00",
            "7": "0.00",
            "8": "0.00",
            "9": "0.00",
            "10": "0.00",
            "age": "60"
        }
    ],
    "male": [
        {
            "3": "15.40",
            "4": "13.69",
            "5": "12.99",
            "6": "12.65",
            "7": "12.47",
            "8": "12.38",
            "9": "12.34",
            "10": "12.35",
            "age": "18"
        },
        {
            "3": "16.18",
            "4": "14.32",
            "5": "13.51",
            "6": "13.09",
            "7": "12.85",
            "8": "12.71",
            "9": "12.64",
            "10": "12.63",
            "age": "19"
        },
        {
            "3": "16.84",
            "4": "14.83",
            "5": "13.91",
            "6": "13.41",
            "7": "13.12",
            "8": "12.95",
            "9": "12.87",
            "10": "12.85",
            "age": "20"
        },
        {
            "3": "17.34",
            "4": "15.19",
            "5": "14.18",
            "6": "13.63",
            "7": "13.31",
            "8": "13.13",
            "9": "13.04",
            "10": "13.01",
            "age": "21"
        },
        {
            "3": "17.64",
            "4": "15.38",
            "5": "14.32",
            "6": "13.75",
            "7": "13.43",
            "8": "13.25",
            "9": "13.15",
            "10": "13.13",
            "age": "22"
        },
        {
            "3": "17.74",
            "4": "15.44",
            "5": "14.38",
            "6": "13.82",
            "7": "13.50",
            "8": "13.32",
            "9": "13.24",
            "10": "13.23",
            "age": "23"
        },
        {
            "3": "17.75",
            "4": "15.46",
            "5": "14.42",
            "6": "13.86",
            "7": "13.55",
            "8": "13.38",
            "9": "13.33",
            "10": "13.36",
            "age": "24"
        },
        {
            "3": "17.74",
            "4": "15.49",
            "5": "14.45",
            "6": "13.91",
            "7": "13.61",
            "8": "13.48",
            "9": "13.47",
            "10": "13.54",
            "age": "25"
        },
        {
            "3": "17.80",
            "4": "15.55",
            "5": "14.52",
            "6": "14.00",
            "7": "13.74",
            "8": "13.65",
            "9": "13.68",
            "10": "13.81",
            "age": "26"
        },
        {
            "3": "17.91",
            "4": "15.65",
            "5": "14.65",
            "6": "14.16",
            "7": "13.95",
            "8": "13.91",
            "9": "13.99",
            "10": "14.16",
            "age": "27"
        },
        {
            "3": "18.04",
            "4": "15.80",
            "5": "14.84",
            "6": "14.40",
            "7": "14.24",
            "8": "14.26",
            "9": "14.39",
            "10": "14.59",
            "age": "28"
        },
        {
            "3": "18.23",
            "4": "16.03",
            "5": "15.12",
            "6": "14.75",
            "7": "14.65",
            "8": "14.71",
            "9": "14.87",
            "10": "15.10",
            "age": "29"
        },
        {
            "3": "18.53",
            "4": "16.39",
            "5": "15.54",
            "6": "15.23",
            "7": "15.17",
            "8": "15.26",
            "9": "15.45",
            "10": "15.70",
            "age": "30"
        },
        {
            "3": "19.04",
            "4": "16.94",
            "5": "16.14",
            "6": "15.85",
            "7": "15.82",
            "8": "15.93",
            "9": "16.13",
            "10": "16.40",
            "age": "31"
        },
        {
            "3": "19.78",
            "4": "17.67",
            "5": "16.88",
            "6": "16.60",
            "7": "16.57",
            "8": "16.70",
            "9": "16.91",
            "10": "17.20",
            "age": "32"
        },
        {
            "3": "20.74",
            "4": "18.57",
            "5": "17.74",
            "6": "17.45",
            "7": "17.42",
            "8": "17.55",
            "9": "17.78",
            "10": "18.08",
            "age": "33"
        },
        {
            "3": "21.86",
            "4": "19.57",
            "5": "18.70",
            "6": "18.38",
            "7": "18.35",
            "8": "18.49",
            "9": "18.72",
            "10": "19.04",
            "age": "34"
        },
        {
            "3": "23.05",
            "4": "20.64",
            "5": "19.71",
            "6": "19.37",
            "7": "19.34",
            "8": "19.47",
            "9": "19.72",
            "10": "20.06",
            "age": "35"
        },
        {
            "3": "24.27",
            "4": "21.73",
            "5": "20.76",
            "6": "20.41",
            "7": "20.37",
            "8": "20.51",
            "9": "20.78",
            "10": "21.14",
            "age": "36"
        },
        {
            "3": "25.52",
            "4": "22.87",
            "5": "21.85",
            "6": "21.48",
            "7": "21.45",
            "8": "21.61",
            "9": "21.90",
            "10": "22.28",
            "age": "37"
        },
        {
            "3": "26.84",
            "4": "24.07",
            "5": "23.00",
            "6": "22.63",
            "7": "22.60",
            "8": "22.78",
            "9": "23.09",
            "10": "23.47",
            "age": "38"
        },
        {
            "3": "28.24",
            "4": "25.34",
            "5": "24.23",
            "6": "23.85",
            "7": "23.84",
            "8": "24.03",
            "9": "24.34",
            "10": "24.73",
            "age": "39"
        },
        {
            "3": "29.74",
            "4": "26.70",
            "5": "25.56",
            "6": "25.18",
            "7": "25.16",
            "8": "25.35",
            "9": "25.66",
            "10": "26.06",
            "age": "40"
        },
        {
            "3": "31.33",
            "4": "28.17",
            "5": "26.99",
            "6": "26.58",
            "7": "26.55",
            "8": "26.73",
            "9": "27.05",
            "10": "27.46",
            "age": "41"
        },
        {
            "3": "33.05",
            "4": "29.75",
            "5": "28.51",
            "6": "28.07",
            "7": "28.01",
            "8": "28.18",
            "9": "28.51",
            "10": "28.96",
            "age": "42"
        },
        {
            "3": "34.94",
            "4": "31.46",
            "5": "30.12",
            "6": "29.62",
            "7": "29.54",
            "8": "29.72",
            "9": "30.08",
            "10": "30.59",
            "age": "43"
        },
        {
            "3": "36.95",
            "4": "33.23",
            "5": "31.79",
            "6": "31.24",
            "7": "31.16",
            "8": "31.36",
            "9": "31.78",
            "10": "32.37",
            "age": "44"
        },
        {
            "3": "39.00",
            "4": "35.05",
            "5": "33.50",
            "6": "32.93",
            "7": "32.87",
            "8": "33.14",
            "9": "33.65",
            "10": "34.34",
            "age": "45"
        },
        {
            "3": "41.06",
            "4": "36.89",
            "5": "35.28",
            "6": "34.72",
            "7": "34.72",
            "8": "35.09",
            "9": "35.71",
            "10": "36.56",
            "age": "46"
        },
        {
            "3": "43.14",
            "4": "38.81",
            "5": "37.18",
            "6": "36.68",
            "7": "36.78",
            "8": "37.27",
            "9": "38.06",
            "10": "39.12",
            "age": "47"
        },
        {
            "3": "45.38",
            "4": "40.92",
            "5": "39.32",
            "6": "38.90",
            "7": "39.14",
            "8": "39.81",
            "9": "40.82",
            "10": "42.15",
            "age": "48"
        },
        {
            "3": "47.89",
            "4": "43.34",
            "5": "41.79",
            "6": "41.49",
            "7": "41.91",
            "8": "42.81",
            "9": "44.13",
            "10": "45.82",
            "age": "49"
        },
        {
            "3": "50.85",
            "4": "46.19",
            "5": "44.71",
            "6": "44.59",
            "7": "45.25",
            "8": "46.47",
            "9": "48.18",
            "10": "50.33",
            "age": "50"
        },
        {
            "3": "54.37",
            "4": "49.59",
            "5": "48.23",
            "6": "48.33",
            "7": "49.32",
            "8": "50.98",
            "9": "53.18",
            "10": "55.80",
            "age": "51"
        },
        {
            "3": "58.59",
            "4": "53.71",
            "5": "52.50",
            "6": "52.93",
            "7": "54.38",
            "8": "56.56",
            "9": "59.27",
            "10": "62.25",
            "age": "52"
        },
        {
            "3": "63.69",
            "4": "58.72",
            "5": "57.78",
            "6": "58.66",
            "7": "60.66",
            "8": "63.38",
            "9": "66.46",
            "10": "69.64",
            "age": "53"
        },
        {
            "3": "69.96",
            "4": "64.96",
            "5": "64.39",
            "6": "65.83",
            "7": "68.39",
            "8": "71.46",
            "9": "74.71",
            "10": "77.95",
            "age": "54"
        },
        {
            "3": "77.83",
            "4": "72.85",
            "5": "72.74",
            "6": "74.69",
            "7": "77.54",
            "8": "80.74",
            "9": "84.00",
            "10": "87.20",
            "age": "55"
        },
        {
            "3": "87.85",
            "4": "82.86",
            "5": "83.06",
            "6": "85.17",
            "7": "88.03",
            "8": "91.14",
            "9": "94.30",
            "10": "0.00",
            "age": "56"
        },
        {
            "3": "100.63",
            "4": "95.25",
            "5": "95.25",
            "6": "97.12",
            "7": "99.73",
            "8": "102.62",
            "9": "0.00",
            "10": "0.00",
            "age": "57"
        },
        {
            "3": "116.38",
            "4": "109.72",
            "5": "108.94",
            "6": "110.26",
            "7": "112.47",
            "8": "0.00",
            "9": "0.00",
            "10": "0.00",
            "age": "58"
        },
        {
            "3": "134.28",
            "4": "125.53",
            "5": "123.63",
            "6": "124.24",
            "7": "0.00",
            "8": "0.00",
            "9": "0.00",
            "10": "0.00",
            "age": "59"
        },
        {
            "3": "152.98",
            "4": "141.81",
            "5": "138.67",
            "6": "0.00",
            "7": "0.00",
            "8": "0.00",
            "9": "0.00",
            "10": "0.00",
            "age": "60"
        }
    ]
}